Processing; Rendering; frame
0,337775;8,73123;9,0716
0,00147;11,2357;11,3243
0,001453;11,0694;11,0718
0,098072;11,0834;11,1824
0,001315;11,0997;11,1049
0,001495;11,1647;11,1669
0,001588;11,1195;11,1218
0,001619;11,1948;11,1971
0,001466;11,1048;11,1069
0,001724;11,1833;11,1858
0,001538;11,1167;11,1189
0,001634;11,2098;11,2121
0,001463;11,1299;11,132
0,001725;11,1846;11,187
0,001638;11,0615;11,0638
0,001473;11,2404;11,2426
0,001546;11,156;11,1583
0,001571;11,0782;11,0804
0,001517;11,1296;11,1318
0,001559;11,0675;11,0697
0,001453;11,138;11,1401
0,001466;11,0708;11,0729
0,001602;11,0465;11,0488
0,001452;11,0924;11,0945
0,001595;11,1289;11,1312
0,001726;11,1605;11,1628
0,0014;11,1526;11,1546
0,000695;8,84117;11,5691
0,001602;11,2033;11,206
0,001952;11,1788;11,1814
0,001977;11,1696;11,1723
0,00203;11,1521;11,1548
0,001897;11,1676;11,1702
0,002018;11,1401;11,1428
0,001997;11,1568;11,1595
0,001876;11,1684;11,1711
0,002121;11,1408;11,1436
0,001986;11,1477;11,1504
0,001995;11,0804;11,0831
0,001962;11,1546;11,1572
0,001953;11,2109;11,2136
0,001917;11,1738;11,1764
0,002019;11,1945;11,1973
0,001916;11,123;11,1255
0,001985;11,1533;11,1559
0,002056;11,1663;11,1691
0,001891;11,1099;11,1125
0,001928;11,1709;11,1735
0,00199;11,1764;11,179
0,001941;11,128;11,1307
0,001942;11,1812;11,1837
0,002012;11,1302;11,1329
0,001931;11,1552;11,1578
0,001858;11,1361;11,1386
0,000702;8,56339;11,2658
0,001748;11,0417;11,0908
0,001832;10,9636;11,0022
0,001969;10,8698;10,915
0,001593;11,4384;11,4845
0,001183;11,0824;11,0847
0,001616;11,1234;11,1257
0,001657;11,1327;11,135
0,001734;11,1079;11,1103
0,001624;11,1384;11,1407
0,002137;11,1328;11,1355
0,001619;11,1595;11,1617
0,001535;11,1699;11,1721
0,0016;11,0861;11,0883
0,001755;11,1062;11,1086
0,001517;11,1191;11,1211
0,001615;11,0835;11,0859
0,001715;11,0808;11,0832
0,001523;11,0179;11,0201
0,001645;11,1189;11,1212
0,001607;11,1863;11,1887
0,001781;11,1238;11,1263
0,001705;11,0901;11,0924
0,001615;11,1981;11,2004
0,001657;11,0895;11,0918
0,001692;11,1736;11,1759
0,001711;11,1377;11,1401
0,001793;11,1773;11,1798
0,001775;11,1448;11,1473
0,001564;11,1542;11,1565
0,001651;11,1345;11,1367
0,001652;11,2602;11,2624
0,000497;8,53708;11,3245
0,001399;11,0083;11,0566
0,000922;10,8278;10,867
0,000894;10,9688;11,0096
0,000918;10,927;10,9727
0,000902;10,8271;10,8698
0,000891;10,9929;11,0406
0,000845;10,8667;10,9009
0,000886;11,0224;11,0583
0,000899;11,0211;11,0656
0,000919;11,0106;11,0525
0,000953;10,8656;10,9005
0,001036;10,999;11,0459
0,000918;11,0275;11,0758
0,000989;10,9386;10,9761
0,001019;10,9484;10,9932
0,000981;10,9605;11,0058
0,001014;11,5049;11,545
0,000969;11,6579;11,673
0,001022;11,4122;11,4335
0,001389;11,1456;11,1513
0,000883;11,1439;11,147
0,000892;11,1054;11,108
0,000893;11,0955;11,0983
0,000876;11,0817;11,0842
0,000877;11,1367;11,1392
0,000897;11,2122;11,2147
0,000911;11,1371;11,1398
0,000858;11,1981;11,2007
0,000885;11,0512;11,0538
0,000881;11,0908;11,0933
0,000956;11,1036;11,1062
0,000923;10,9974;11,0002
0,000898;11,0617;11,065
0,000887;11,1156;11,1182
0,000886;11,0865;11,0892
0,000905;11,1282;11,1311
0,000884;11,2159;11,2184
0,000867;11,0956;11,0982
0,000886;11,1912;11,1939
0,000879;11,1796;11,1822
0,000923;11,1189;11,1215
0,000953;11,3187;11,3216
0,00089;12,4446;12,4472
0,001089;10,9335;10,9469
0,000703;12,6832;12,69
0,00092;12,1237;12,1269
0,00081;11,1465;11,15
0,00087;11,0217;11,0412
0,000941;10,8937;10,8979
0,000889;11,0313;11,0465
0,000933;11,0501;11,0615
0,000882;11,0732;11,0821
0,000843;11,0643;11,0836
0,000822;10,9063;10,9178
0,001385;11,0335;11,0539
0,000842;11,11;11,118
0,000916;11,0636;11,0793
0,000887;10,9304;10,9429
0,000816;10,8798;10,8917
0,000823;10,886;10,8985
0,000962;10,8985;10,905
0,000783;11,0123;11,023
0,000923;10,8721;10,8854
0,00076;11,0537;11,0574
0,000842;11,0411;11,0463
0,000866;10,9595;10,9774
0,000859;10,9734;10,9899
0,000795;11,039;11,0582
0,000808;11,0388;11,0423
0,000922;10,9757;10,9799
0,000935;11,2537;11,2701
0,000885;10,9416;10,9471
0,000886;11,1264;11,1442
0,000845;11,0004;11,0162
0,000797;10,9532;10,9622
0,000885;10,9497;10,9554
0,000825;11,0382;11,0416
0,000834;10,9656;10,9759
0,000856;11,1003;11,1106
0,000821;10,9355;10,9444
0,000838;10,9876;10,9945
0,000993;11,0263;11,0311
0,000819;10,9569;10,9731
0,000851;11,0054;11,0244
0,000882;11,0625;11,066
0,000886;10,9118;10,9251
0,001096;10,8735;10,8878
0,00085;10,9683;10,987
0,000841;10,9454;10,9528
0,000907;10,9674;10,9814
0,00091;11,1004;11,1086
0,000833;10,8767;10,8854
0,000911;10,9804;10,9961
0,000847;10,9847;10,9967
0,000868;10,967;10,9747
0,000845;11,0348;11,0381
0,000935;11,0333;11,0467
0,000542;11,3209;11,3317
0,001299;10,9771;11,019
0,000957;10,9647;11,0007
0,000958;10,9162;10,9615
0,000934;10,9493;10,9856
0,001249;10,9472;10,9862
0,00122;10,8458;10,8933
0,000972;11,0065;11,0497
0,001101;11,0508;11,0911
0,000881;10,8397;10,8778
0,001074;10,9096;10,9447
0,000994;10,997;11,0399
0,000966;11,0076;11,0479
0,000954;10,9658;11,003
0,001016;11,0079;11,0563
0,000954;11,0173;11,056
0,001126;10,9689;11,0153
0,000972;10,8914;10,9375
0,000913;11,0084;11,0489
0,000973;11,0418;11,0775
0,000957;11,3987;11,4355
