Processing; Rendering; frame
0,016543;0,536038;0,558931
0,005915;0,201399;0,208769
0,006203;0,215156;0,222642
0,006024;0,201842;0,209216
0,008051;0,202443;0,211978
0,007514;0,218235;0,227376
0,009183;0,213812;0,224275
0,005416;0,212075;0,219133
0,006156;0,256367;0,263942
0,00628;0,250529;0,258585
0,005701;0,252063;0,259298
0,006323;0,247651;0,25546
0,006195;0,238875;0,246334
0,005476;0,218414;0,225092
0,005697;0,205247;0,212275
0,008521;0,201459;0,211617
0,006674;0,215047;0,223074
0,009052;0,201469;0,211805
0,006303;0,206769;0,21439
0,00571;0,204921;0,212046
0,007424;0,202632;0,211581
0,006684;0,214141;0,222119
0,006429;0,202312;0,209871
0,005655;0,206739;0,213989
0,005802;0,202281;0,209536
0,008861;0,201621;0,21174
0,005895;0,214493;0,221804
0,006447;0,20201;0,209852
0,00703;0,211576;0,219845
0,005716;0,201369;0,208512
0,005742;0,20209;0,209099
0,00579;0,213429;0,220426
0,005576;0,20269;0,209736
0,00589;0,210343;0,217805
0,005643;0,201882;0,208692
0,005575;0,22361;0,230774
0,006749;0,247118;0,25544
0,005802;0,237391;0,244762
0,005366;0,218542;0,225064
0,005447;0,201171;0,208005
0,009296;0,205246;0,215907
0,006661;0,201623;0,209963
0,010077;0,202565;0,214155
0,008119;0,216383;0,226074
0,005896;0,201802;0,208862
0,006312;0,214158;0,221709
0,005524;0,202715;0,209806
0,005249;0,201303;0,207804
0,005393;0,218444;0,225104
0,007139;0,201353;0,20979
0,006469;0,213933;0,221658
0,006585;0,201628;0,209482
0,005928;0,202009;0,209139
0,005512;0,215789;0,222682
0,007283;0,202328;0,210945
0,005421;0,214062;0,220895
0,008835;0,202375;0,212649
0,006492;0,201701;0,21201
0,006599;0,209973;0,218284
0,006479;0,201548;0,20961
0,008945;0,213097;0,223458
0,006629;0,201766;0,209644
0,006314;0,202416;0,210051
0,00571;0,204422;0,211335
0,006579;0,202035;0,209855
0,006711;0,212636;0,22072
0,008909;0,202904;0,213166
0,006256;0,201736;0,209557
0,006006;0,205076;0,212356
0,005828;0,20177;0,209249
0,00586;0,214726;0,221779
0,005892;0,201368;0,208451
0,005452;0,20217;0,211422
0,006205;0,201659;0,209053
0,006122;0,202525;0,210095
0,005447;0,223943;0,230696
0,005736;0,20238;0,209521
0,005571;0,201853;0,20867
0,005932;0,202116;0,209599
0,005518;0,201624;0,208737
0,005968;0,217704;0,225136
0,006138;0,204828;0,212162
0,005462;0,202553;0,209168
0,005481;0,206339;0,213222
0,005503;0,216608;0,223622
0,009186;0,201512;0,212017
0,006322;0,20228;0,20997
0,008176;0,213444;0,22324
0,005962;0,223213;0,23049
0,009125;0,201222;0,211915
0,005698;0,207099;0,214191
0,005885;0,221695;0,228811
0,006852;0,202992;0,211108
0,006648;0,201372;0,209391
0,008883;0,208337;0,218696
0,006115;0,225352;0,232644
0,005816;0,202203;0,209188
0,005739;0,201623;0,208624
0,005588;0,202421;0,209184
0,005538;0,20131;0,208285
0,005452;0,202629;0,20951
0,005405;0,201918;0,208526
0,006496;0,202242;0,210176
0,005437;0,201474;0,208142
0,005483;0,202455;0,209092
0,005483;0,201189;0,208002
0,005539;0,202298;0,209052
0,006183;0,20188;0,209218
0,005763;0,202296;0,209288
0,005975;0,201537;0,208968
0,005497;0,202078;0,208735
0,005798;0,201281;0,208565
0,006171;0,201939;0,209301
0,006481;0,201507;0,209503
0,005437;0,202551;0,209524
0,009781;0,201535;0,212885
0,006827;0,202556;0,210854
0,008301;0,201917;0,211564
0,005794;0,202037;0,209036
0,006013;0,201524;0,209611
0,007864;0,202568;0,211885
0,009655;0,201609;0,213204
0,009142;0,202517;0,2132
0,005659;0,201454;0,208346
0,008754;0,202489;0,212608
0,008686;0,201807;0,21195
0,009395;0,202314;0,213032
0,005404;0,201508;0,208051
0,005714;0,202174;0,209258
0,009163;0,211391;0,221897
0,008123;0,202799;0,212563
0,007707;0,201551;0,210603
0,005818;0,202289;0,209635
0,00712;0,201755;0,210236
0,009599;0,202033;0,213093
0,009232;0,201416;0,211995
0,0059;0,202546;0,209776
0,00847;0,201457;0,211185
0,006559;0,202608;0,210663
0,008218;0,201704;0,211942
0,006118;0,20219;0,20983
0,006833;0,201672;0,210198
0,005918;0,20215;0,209324
0,006559;0,201507;0,209391
0,005722;0,202568;0,209483
0,005839;0,201406;0,208732
0,006194;0,205552;0,212893
0,005637;0,201439;0,208288
0,005445;0,202174;0,208817
0,005895;0,201471;0,208628
0,00592;0,202593;0,209923
0,008324;0,201742;0,211502
0,00763;0,202479;0,211529
0,006775;0,201488;0,210097
0,005594;0,202361;0,209277
0,007563;0,201608;0,210692
0,006126;0,202614;0,209991
0,006479;0,201773;0,209878
0,007344;0,202361;0,211156
0,009143;0,201444;0,211929
0,005569;0,202337;0,209136
0,005465;0,201742;0,208826
0,008748;0,202732;0,212746
0,007136;0,201711;0,210488
0,008714;0,20246;0,212787
0,006721;0,202056;0,210026
0,006955;0,202242;0,210591
0,008739;0,20167;0,211851
0,005767;0,202308;0,209642
0,00547;0,201618;0,208558
0,008808;0,20283;0,213183
0,007398;0,201314;0,209956
0,006533;0,202444;0,210613
0,008137;0,201411;0,210993
0,007417;0,202144;0,210957
0,007365;0,201646;0,21026
0,005853;0,201895;0,209161
0,00786;0,201859;0,210993
0,00557;0,202183;0,209075
0,008156;0,201257;0,210835
0,007116;0,20244;0,210815
0,006064;0,201713;0,209036
0,007162;0,202127;0,210513
0,00622;0,20145;0,208893
0,005632;0,202443;0,209331
0,006439;0,201462;0,209281
0,008234;0,202081;0,211783
0,008032;0,201147;0,21065
0,007215;0,202692;0,211338
0,006793;0,201369;0,209567
0,008775;0,201969;0,212049
0,008599;0,201608;0,21183
0,008954;0,202146;0,212388
0,006495;0,201604;0,214205
0,005819;0,20293;0,209951
0,005958;0,201566;0,208889
0,008617;0,20256;0,212701
0,00659;0,201897;0,209849
0,00809;0,212021;0,221375
0,005556;0,201527;0,208359
0,005686;0,202691;0,209713
0,00931;0,201872;0,212778
0,006802;0,202601;0,210744
0,008917;0,201973;0,212324
0,007836;0,20209;0,211199
0,006214;0,201808;0,209442
0,008346;0,202034;0,211801
0,008617;0,201926;0,211941
0,009046;0,202801;0,213185
0,007097;0,201446;0,209836
0,006544;0,202767;0,210675
0,008841;0,20155;0,211791
0,008583;0,202445;0,212282
0,006721;0,201748;0,209827
0,008873;0,202307;0,212585
0,007919;0,201255;0,210796
0,00642;0,202693;0,210467
0,007316;0,219258;0,228258
0,006463;0,202344;0,210214
0,00578;0,201919;0,209894
0,009036;0,202278;0,212714
0,008984;0,201574;0,211871
0,005425;0,202442;0,209205
0,008921;0,201765;0,2119
0,005563;0,202543;0,209439
0,008545;0,201962;0,211798
0,005407;0,201819;0,208505
0,00683;0,201264;0,209419
0,008677;0,202302;0,212366
0,008937;0,201869;0,212273
0,008625;0,202381;0,212528
0,007566;0,201474;0,210443
0,007731;0,202653;0,211812
0,008896;0,201497;0,211737
0,006554;0,202286;0,210266
0,010167;0,20154;0,213586
0,008722;0,202505;0,212629
0,008956;0,201681;0,212001
0,007886;0,202138;0,211408
0,007607;0,201878;0,210919
0,007284;0,202168;0,211117
0,007013;0,20173;0,209979
0,005632;0,202333;0,209069
0,00592;0,201568;0,208691
0,006402;0,202133;0,209978
0,007811;0,201411;0,210608
0,007748;0,202853;0,212323
0,009009;0,201466;0,211755
0,006108;0,202769;0,210483
0,005532;0,201787;0,208701
0,009019;0,202398;0,212823
0,006861;0,201219;0,209367
0,006494;0,202328;0,210097
0,006783;0,201651;0,209745
0,005935;0,202243;0,209533
0,005832;0,201211;0,208352
0,006595;0,202483;0,210718
0,008788;0,201924;0,212064
0,009013;0,202569;0,213025
0,005719;0,201463;0,208442
0,006783;0,202478;0,210622
0,008736;0,201408;0,211597
0,008924;0,202459;0,212764
0,008682;0,201181;0,211505
0,005551;0,20253;0,209427
0,008547;0,201393;0,211403
0,007874;0,202079;0,21124
0,006365;0,201924;0,209577
0,00687;0,202573;0,210859
0,007461;0,201329;0,210109
0,006327;0,202723;0,210578
0,006299;0,201498;0,208993
0,005661;0,202655;0,209637
0,00735;0,20153;0,210182
0,005624;0,202531;0,209609
0,008117;0,201404;0,210826
0,006342;0,202389;0,210102
0,007395;0,201857;0,210707
0,006793;0,201984;0,209995
0,005719;0,201769;0,208836
0,007328;0,202732;0,211487
0,006666;0,201263;0,209353
0,007321;0,202483;0,211225
0,009205;0,201323;0,21174
0,005319;0,202078;0,208911
0,006177;0,200962;0,208471
0,006236;0,202724;0,210268
0,007821;0,201239;0,210287
0,006615;0,215375;0,223254
0,005758;0,201172;0,208696
0,007723;0,202207;0,211262
0,006296;0,201516;0,209427
0,007647;0,201973;0,2111
0,00722;0,201861;0,210418
0,008225;0,20245;0,211918
0,006579;0,201351;0,209176
0,00552;0,202626;0,209405
0,006782;0,201548;0,209594
0,005902;0,201939;0,209086
0,006942;0,201164;0,209551
0,005265;0,202378;0,209086
0,005791;0,201613;0,208868
0,005993;0,202136;0,209242
0,005914;0,201747;0,2088
0,005606;0,202202;0,209089
0,006448;0,204635;0,212783
0,005292;0,223646;0,230315
0,005679;0,204495;0,211569
0,005861;0,236343;0,243439
0,006069;0,256797;0,264028
0,005801;0,253016;0,259998
0,005733;0,249347;0,25652
0,005538;0,24167;0,25059
0,005126;0,215988;0,222854
0,00593;0,229775;0,237919
0,008027;0,251666;0,261719
0,009522;0,237604;0,248817
0,005931;0,256134;0,263451
0,0053;0,238412;0,24507
0,005517;0,211434;0,218364
0,005837;0,245334;0,253026
0,005318;0,258158;0,264854
0,005302;0,244021;0,251252
0,005304;0,237664;0,244559
0,005423;0,204845;0,212156
0,006191;0,227176;0,234886
0,005801;0,238814;0,246218
0,005579;0,260422;0,267403
0,005845;0,268844;0,276571
0,00548;0,252125;0,259049
0,005667;0,205962;0,213272
0,005778;0,20475;0,211887
0,005346;0,202279;0,211087
0,005444;0,201714;0,208436
0,005397;0,201953;0,209078
0,005347;0,201147;0,207893
0,005737;0,202054;0,209329
0,005598;0,201051;0,208285
0,006064;0,202438;0,210218
0,005791;0,206335;0,213553
0,006239;0,236909;0,244687
0,005896;0,238845;0,246398
0,00566;0,202546;0,209651
0,005856;0,213387;0,221089
0,005635;0,257416;0,265514
0,009136;0,262795;0,275349
0,005466;0,214748;0,222024
0,006181;0,202009;0,209853
0,005661;0,220842;0,227941
0,00552;0,225615;0,23258
0,005544;0,244814;0,252054
0,005672;0,245162;0,25276
0,006716;0,230677;0,24044
0,008282;0,269793;0,279968
0,005955;0,228386;0,236123
0,00629;0,227597;0,23559
0,005936;0,245723;0,253297
0,005699;0,2161;0,226031
0,005418;0,245488;0,252407
0,006476;0,240681;0,248977
0,006505;0,236907;0,245138
0,005547;0,232225;0,239547
0,005556;0,269185;0,276342
0,005742;0,21485;0,222548
0,009136;0,256191;0,267191
0,007983;0,210635;0,220275
0,006071;0,217674;0,226916
0,005874;0,201377;0,208691
0,00586;0,202423;0,21007
0,005739;0,215388;0,222583
0,005762;0,220996;0,228603
0,00628;0,236166;0,244054
0,006662;0,202726;0,211151
0,005778;0,201225;0,208509
0,005775;0,220522;0,228024
0,005788;0,224708;0,23272
0,008979;0,202483;0,213457
0,008986;0,235565;0,246261
0,006521;0,218994;0,227229
0,005702;0,201484;0,208785
0,005485;0,218519;0,225865
0,005786;0,204487;0,211691
0,006283;0,213746;0,221526
0,006022;0,23067;0,238661
0,00565;0,231931;0,239157
0,005709;0,216891;0,224308
0,005447;0,231046;0,238136
0,005502;0,22577;0,232945
0,00642;0,222357;0,230301
0,005391;0,210528;0,217542
0,005596;0,202414;0,21018
0,007826;0,20168;0,2114
0,00561;0,202219;0,209512
0,00662;0,213219;0,221707
0,005659;0,202494;0,209734
0,005624;0,208165;0,215383
0,005514;0,201843;0,209284
0,005355;0,226848;0,233793
0,005757;0,21648;0,22396
0,005723;0,20458;0,211765
0,005548;0,202222;0,209624
0,005584;0,210568;0,217995
0,006651;0,226131;0,234271
0,005755;0,218162;0,225801
0,005498;0,21737;0,224691
0,005868;0,236721;0,244446
0,008924;0,216386;0,227407
0,009006;0,201368;0,212262
0,008884;0,216671;0,227384
0,006565;0,217191;0,22535
0,006692;0,202725;0,211174
0,008331;0,201985;0,212287
0,006696;0,202163;0,210491
0,006453;0,24538;0,253496
0,00653;0,236001;0,244444
0,009117;0,201723;0,212533
0,007454;0,22179;0,231125
0,007709;0,219611;0,228819
0,006653;0,205291;0,215741
0,005481;0,222712;0,229568
0,005622;0,202569;0,209609
0,005607;0,206206;0,213267
0,006409;0,230155;0,237967
0,005775;0,234402;0,241714
0,006625;0,262699;0,271054
0,008355;0,264119;0,277952
0,005324;0,279733;0,287032
0,006849;0,205129;0,213795
