Processing; Rendering; Frame
0,013973;0,261453;0,282024
0,005906;0,01654;0,023742
0,005858;0,016178;0,023304
0,005798;0,015669;0,022473
0,005993;0,015712;0,022503
0,005593;0,015509;0,022723
0,006135;0,015654;0,022726
0,005647;0,015671;0,022071
0,005526;0,015474;0,021687
0,005785;0,015637;0,02217
0,005512;0,015534;0,022588
0,005263;0,015442;0,021487
0,005402;0,015422;0,021476
0,005407;0,015525;0,021579
0,005185;0,015684;0,021721
0,008;0,01645;0,026027
0,006092;0,016571;0,023414
0,005825;0,015539;0,022265
0,005975;0,01731;0,024015
0,005227;0,017101;0,023202
0,005637;0,016843;0,023803
0,005694;0,017298;0,023702
0,005749;0,015556;0,021976
0,005975;0,016986;0,023678
0,006173;0,017347;0,024276
0,006055;0,016922;0,024377
0,00556;0,016521;0,022863
0,00561;0,016314;0,022654
0,006763;0,016349;0,023852
0,005796;0,015972;0,022461
0,00551;0,016448;0,02403
0,005608;0,017334;0,023679
0,006329;0,016476;0,023608
0,006643;0,016975;0,024497
0,006455;0,016324;0,023582
0,00646;0,017381;0,025288
0,007415;0,017443;0,025648
0,007053;0,016522;0,024475
0,006655;0,015849;0,023537
0,010092;0,016871;0,028539
0,00673;0,015737;0,023194
0,007416;0,017033;0,025252
0,006633;0,016243;0,023718
0,006677;0,016608;0,024034
0,005829;0,016567;0,023902
0,006086;0,016166;0,023019
0,006061;0,017302;0,024211
0,006053;0,016223;0,023058
0,006315;0,016285;0,023327
0,006008;0,016078;0,02355
0,005536;0,016387;0,02272
0,006668;0,017408;0,024863
0,005939;0,015506;0,022174
0,006006;0,016248;0,023
0,005577;0,016691;0,023866
0,006216;0,016668;0,023742
0,005734;0,017221;0,023765
0,006127;0,016496;0,023434
0,006157;0,016405;0,023373
0,006621;0,015682;0,024022
0,005602;0,016201;0,02252
0,00534;0,016298;0,02236
0,005639;0,015814;0,022126
0,005995;0,016495;0,023166
0,00548;0,016495;0,023295
0,00627;0,01553;0,022557
0,005868;0,015623;0,022271
0,005635;0,015937;0,022285
0,006737;0,015561;0,023125
0,00568;0,015427;0,022572
0,005895;0,015443;0,022094
0,005479;0,01547;0,021661
0,005522;0,015427;0,021682
0,00599;0,015427;0,022076
0,005381;0,015431;0,022036
0,005587;0,015464;0,021749
0,005642;0,015548;0,021934
0,005488;0,01559;0,021836
0,006216;0,015516;0,022476
0,005925;0,015609;0,022895
0,005995;0,015525;0,022286
0,006017;0,01547;0,022296
0,005802;0,015448;0,021952
0,005861;0,015496;0,022125
0,005779;0,015414;0,022824
0,006025;0,015545;0,022486
0,00581;0,015504;0,022076
0,007045;0,015582;0,023408
0,005992;0,015588;0,022411
0,006997;0,015568;0,023931
0,005756;0,016455;0,022989
0,00602;0,015766;0,022857
0,005624;0,016527;0,022923
0,006101;0,015945;0,022762
0,005654;0,015404;0,023896
0,005456;0,015641;0,022717
0,006585;0,015575;0,023521
0,005938;0,015474;0,022485
0,005653;0,015476;0,022217
0,005618;0,0156;0,022788
0,005586;0,015518;0,022291
0,006139;0,015544;0,022945
0,005878;0,015474;0,022438
0,005737;0,015522;0,022348
0,005216;0,015641;0,02257
0,00609;0,015581;0,02318
0,005473;0,015534;0,022025
0,005625;0,015515;0,02215
0,005783;0,015433;0,022285
0,005482;0,015579;0,022832
0,005538;0,015504;0,022183
0,005541;0,01554;0,022123
0,005842;0,01551;0,02241
0,00589;0,015463;0,022446
0,005945;0,016186;0,024126
0,005461;0,016336;0,022874
0,005943;0,015534;0,022686
0,005544;0,015471;0,021992
0,005714;0,015523;0,022
0,005227;0,01556;0,022409
0,005851;0,015558;0,022574
0,005853;0,015494;0,022399
0,005566;0,015458;0,021969
0,005306;0,015572;0,021893
0,00571;0,015484;0,02285
0,005464;0,015461;0,021598
0,005624;0,015549;0,021866
0,005565;0,015607;0,021936
0,005792;0,01545;0,021997
0,006196;0,015529;0,023106
0,005811;0,015539;0,022118
0,005392;0,015512;0,021591
0,00548;0,015544;0,021842
0,005786;0,015583;0,02215
0,006357;0,015577;0,023359
0,005488;0,015587;0,023373
0,005611;0,015611;0,022584
0,005974;0,015498;0,022183
0,005502;0,016171;0,022498
0,005805;0,016002;0,023657
0,005554;0,016069;0,022559
0,005986;0,016614;0,023494
0,006117;0,015586;0,022528
0,005877;0,015589;0,022286
0,005826;0,01552;0,022714
0,005993;0,01564;0,022442
0,005828;0,015581;0,022267
0,006131;0,015569;0,022526
0,005971;0,01554;0,022309
0,005831;0,015533;0,022735
0,006007;0,01572;0,022705
0,006012;0,015575;0,02245
0,005821;0,015505;0,022103
0,00623;0,01545;0,022628
0,005501;0,015495;0,022662
0,005796;0,015525;0,022095
0,005424;0,01542;0,021596
0,005764;0,015503;0,021961
0,005407;0,015459;0,021529
0,005438;0,015429;0,022067
0,006379;0,015565;0,02282
0,006251;0,01576;0,02283
0,005694;0,01594;0,022524
0,005512;0,015482;0,021679
0,005953;0,01555;0,023172
0,005961;0,015479;0,022202
0,005721;0,01551;0,021956
0,005786;0,015496;0,022028
0,005256;0,015527;0,021495
0,006069;0,015612;0,023012
0,005553;0,015625;0,021939
0,005923;0,015433;0,022318
0,005713;0,015551;0,022019
0,005667;0,015562;0,022006
0,006042;0,015526;0,02283
0,005583;0,015492;0,021762
0,005817;0,015452;0,021953
0,005628;0,015442;0,021804
0,005943;0,015577;0,0224
0,006089;0,015515;0,022943
0,005687;0,015465;0,021852
0,00551;0,015509;0,021689
0,005462;0,015505;0,021678
0,005855;0,015556;0,022248
0,005679;0,015547;0,022517
0,00578;0,016197;0,022766
0,0054;0,016327;0,022458
0,005557;0,015549;0,021872
0,006432;0,015652;0,022948
0,00639;0,015508;0,023316
0,005526;0,015508;0,022268
0,005921;0,015515;0,022433
0,006081;0,015474;0,022784
0,006278;0,015411;0,022775
0,005899;0,015716;0,023241
0,005798;0,01558;0,022647
0,005944;0,015509;0,022671
0,005568;0,015551;0,022203
0,005497;0,015585;0,022213
0,005568;0,015448;0,022764
0,005494;0,01552;0,02222
0,005991;0,015507;0,022655
0,005448;0,015416;0,021875
0,005624;0,015548;0,022219
0,005624;0,015404;0,022626
0,005615;0,015533;0,022236
0,005483;0,015524;0,02216
0,005473;0,01617;0,022839
0,006438;0,01634;0,023909
0,00583;0,01563;0,023374
0,005624;0,016151;0,022834
0,005754;0,01643;0,022964
0,005838;0,0161;0,022998
0,005461;0,016317;0,022486
0,005702;0,0163;0,023322
0,005533;0,015413;0,021661
0,006;0,015641;0,022556
0,006467;0,015588;0,023142
0,005825;0,015622;0,022278
0,006266;0,015563;0,023169
